program
    class Main
       method main : SELF_TYPE
            let
                vars
                    SeaOperationsCommander maxRay
                    LandOperationsSpecialist jakeRockwell
                        string "kaboom!"
                    AirOperationsExpert aceMcCloud
                        binary =
                            id whoosh
                            bool true
                    call shout
                        args
                            string "Power X-treme"
